{
    "config": {
        "bitbucket-oauth": {
            "bitbucket.org": {
                "consumer-key": "JZSP5RebjEz7HjMDSu",
                "consumer-secret": "5jY8RLHTAPUnYLMXvzRZJk7cEmXGWxYb"
            }
        }
    }
}